 [
  { "Genre" : {
    "propertyName" : "genre",
    "value" : "Music",
    "language" : "",
    "sourceFormat" : "yt",
    "fragmentIdentifier" : "",
    "mappingType" : "exact",
    "statusCode" : 200
    } 
  }
]