[
  { "Description" : {
    "propertyName" : "description",
    "value" : "Girls' Generation Oh!. For more Information : girlsgeneration.smtown.com",
    "language" : "",
    "sourceFormat" : "yt",
    "fragmentIdentifier" : "",
    "mappingType" : "exact",
    "descriptionLabel" : "Girls' Generation Oh!. For more Information : girlsgeneration.smtown.com",
    "statusCode" : 200
    } 
  }
]