[
  { "Duration" : {
    "propertyName" : "duration",
    "value" : "214",
    "language" : "",
    "sourceFormat" : "yt",
    "fragmentIdentifier" : "",
    "mappingType" : "exact",
    "duration" : 214,
    "statusCode" : 200
    } 
  }
]