[ 
  { "Creator" : {
    "propertyName" : "creator",
    "value" : "Alan Kelsey",
    "language" : "",
    "sourceFormat" : "dc",
    "fragmentIdentifier" : "",
    "mappingType" : "exact",
    "creatorLabel" : "Alan Kelsey",
    "creatorLink" : "",
    "roleLabel" : "creator",
    "roleLink" : "",
    "statusCode" : 200
    } 
  }

]