[ 
  { "Description" : {
    "propertyName" : "description",
    "value" : "Learning Advanced Web Design can be fun and easy! Learn how to design web pages with proper tags, styles, and scripting.",
    "language" : "en",
    "sourceFormat" : "dc",
    "fragmentIdentifier" : "",
    "mappingType" : "exact",
    "descriptionLabel" : "Learning Advanced Web Design can be fun and easy! Learn how to design web pages with proper tags, styles, and scripting.",
    "statusCode" : 200
    } 
  }
]