[ { "MediaAnnotation" : {
       "propertyName" : "",
       "value" : "",
       "language" : "",
       "sourceFormat" : "",
       "fragmentIdentifier" : "",
       "mappingType" : "",
       "statusCode" : 462
       }
} ]